{
  "name":"bfproj1",
  "target_environment":"DEV",
  "components":{
    "database5":{
      "replicas":1,
      "build_version":1,
      "custom_docker_image":"mysql:5.7",
      "command":[],
      "environment_parameters":[],
      "ports":[
        {
          "name":"default",
          "port":5056
        }
      ],
      "type" : "job",
      "args":[

      ]
    }
  }
}