{
   "name":"scproj4",
   "projectDescription":"desc",
   "owner":{
      "uid":"gagandeep.chhabra"
   },
   "developers":[
      "gagandeep.chhabra"
   ],
   "bigdata_environments":[
      "DEV"
   ],
   "persistent_volume_size":2,
   "components":[
      {
         "type":"job",
         "flavor":"scspark",
         "name":"string_indexer",
         "description": "sc component 1"
      }
   ]
}